============
Introduction
============

TODO


============
Installation
============

TODO

========================================
Obtaining the Python interpreter version
========================================

To get the version of Python interpreter, the following command may be used:

>>> python --version

The output may be like

Python 3.8.2

The exact Python version may differ on your machine.

======================================
Installing the pyFIRI package with PIP
======================================

TODO

